{
  "sampleData":
    ["&lt;root&gt;\n &lt;parent1&gt;\n &lt;child1&gt;5&lt;/child1&gt;\n&lt;child2&gt;parent1 word&lt;/child2&gt;\n &lt;/parent1&gt;\n &lt;parent2&gt;\n &lt;uniq attr=\"test_atr\"&gt;val&lt;/uniq&gt;\n &lt;child2&gt;word2&lt;/child2&gt;\n &lt;/parent2&gt;\n&lt;/root&gt;" ],
  "methods": [
    {
      "desc": "Get response object",
      "method": "@exchange.response",
      "result": "# RestClient::Response or Savon::Response object"
    },
    {
      "desc": "Value from unique element",
      "method": "@exchange['uniq']",
      "result": "'val' # String",
      "highlight": "&lt;uniq "
    },
    {
      "desc": "Value via XPath",
      "method": "@exchange['//parent1/child2']",
      "result": "'parent1 word' # String",
      "highlight": "\n&lt;child2&gt;"
    },
    {
      "desc": "Value via first matching XPath",
      "method": "@exchange['//parent1/uniq|//parent2/uniq']",
      "result": "'val' # String. (First XPath didn't find anything so second was used)",
      "highlight": "&lt;uniq "
    },
    {
      "desc": "List of values matching XPath",
      "method": "@exchange.values_from_path('//child2')",
      "result": "['parent1 word', 'word2'] # Array",
      "highlight": "&lt;child2&gt;"
    },
    {
      "desc": "Convert response into hash",
      "method": "@exchange.to_hash",
      "result": "{\"root\"=>{\"parent1\"=>{\"child1\"=>\"5\", \"child2\"=>\"parent1 word\"}, \"parent2\"=>{\"uniq\"=>\"val\", \"child2\"=>\"word2\"}}} # Hash"
    },
    {
      "desc": "Extract attribute from hash",
      "method": "@exchange.to_hash.dig(:root, :parent2, :uniq).attributes['attr']",
      "result": "'test_atr' # String",
      "highlight": "attr"
    }
  ]
}